<svg xmlns="http://www.w3.org/2000/svg" width="124" height="124" viewBox="0 0 124 124">
  <g fill="#303940" fill-rule="evenodd">
    <path d="M62 123.5C28.034 123.5.5 95.966.5 62S28.034.5 62 .5s61.5 27.534 61.5 61.5-27.534 61.5-61.5 61.5zm0-3c32.31 0 58.5-26.19 58.5-58.5S94.31 3.5 62 3.5 3.5 29.69 3.5 62s26.19 58.5 58.5 58.5z"/>
    <path d="M52.208 92.5c-11.44 0-20.708-9.36-20.708-20.898 0-2.958.732-6.176 2.1-9.617 1.724-4.33 4.407-8.902 7.79-13.574 2.13-2.943 4.412-5.75 6.693-8.328.8-.903 1.542-1.713 2.21-2.42.234-.248.443-.466.623-.65.11-.115.187-.193.23-.235l1.044-1.05 1.062 1.032c.043.04.12.116.23.226.18.18.39.392.626.633.668.685 1.412 1.475 2.212 2.356 2.284 2.516 4.567 5.272 6.7 8.183 3.927 5.354 6.898 10.62 8.527 15.606.896 2.745 1.37 5.363 1.37 7.836 0 11.538-9.27 20.898-20.71 20.898zM50.33 42.07c-2.22 2.51-4.44 5.242-6.51 8.1-3.25 4.487-5.813 8.856-7.43 12.924-1.24 3.114-1.89 5.97-1.89 8.508 0 9.888 7.93 17.898 17.708 17.898 9.776 0 17.708-8.01 17.708-17.898 0-2.133-.417-4.443-1.22-6.904-1.517-4.64-4.34-9.645-8.094-14.765-2.068-2.82-4.286-5.497-6.504-7.94-.67-.74-1.3-1.41-1.874-2.006-.58.62-1.216 1.316-1.894 2.083z"/>
    <path d="M73.683 35.157c2.218 2.443 4.436 5.12 6.503 7.94 3.754 5.12 6.578 10.126 8.093 14.766.803 2.46 1.22 4.77 1.22 6.904 0 9.888-7.93 17.898-17.708 17.898v3c11.44 0 20.708-9.36 20.708-20.898 0-2.473-.472-5.09-1.37-7.836-1.628-4.985-4.6-10.25-8.524-15.606-2.134-2.912-4.418-5.667-6.702-8.184-.8-.88-1.543-1.67-2.212-2.356-.235-.24-.444-.453-.625-.633-.11-.11-.188-.185-.23-.226l-1.063-1.032-1.045 1.05c-.04.04-.115.115-.22.224-.175.18-.376.39-.602.627-.643.68-1.36 1.46-2.132 2.33-2.206 2.487-4.423 5.2-6.51 8.052l2.42 1.772c2.028-2.77 4.187-5.412 6.334-7.83.64-.723 1.24-1.38 1.79-1.966.573.597 1.202 1.268 1.873 2.007z"/>
  </g>
</svg>